-------------------------------------------------------------------------------
Test set: com.jumia.jpay.JpayApplicationTests
-------------------------------------------------------------------------------
Tests run: 1, Failures: 0, Errors: 0, Skipped: 0, Time elapsed: 11.832 s - in com.jumia.jpay.JpayApplicationTests
