C:\Users\simon.waweru\Downloads\jpay-docker\jpay-docker\backend\src\main\java\com\jumia\jpay\config\PhoneNumberPatternEnum.java
C:\Users\simon.waweru\Downloads\jpay-docker\jpay-docker\backend\src\main\java\com\jumia\jpay\model\Customer.java
C:\Users\simon.waweru\Downloads\jpay-docker\jpay-docker\backend\src\main\java\com\jumia\jpay\repository\CustomerRepository.java
C:\Users\simon.waweru\Downloads\jpay-docker\jpay-docker\backend\src\main\java\com\jumia\jpay\JpayApplication.java
C:\Users\simon.waweru\Downloads\jpay-docker\jpay-docker\backend\src\main\java\com\jumia\jpay\config\WebConfiguration.java
C:\Users\simon.waweru\Downloads\jpay-docker\jpay-docker\backend\src\main\java\com\jumia\jpay\config\Identifier.java
C:\Users\simon.waweru\Downloads\jpay-docker\jpay-docker\backend\src\main\java\com\jumia\jpay\config\SQLDialect.java
C:\Users\simon.waweru\Downloads\jpay-docker\jpay-docker\backend\src\main\java\com\jumia\jpay\controller\CustomerData.java
C:\Users\simon.waweru\Downloads\jpay-docker\jpay-docker\backend\src\main\java\com\jumia\jpay\controller\CustomerController.java
C:\Users\simon.waweru\Downloads\jpay-docker\jpay-docker\backend\src\main\java\com\jumia\jpay\service\CustomerService.java
